{
  "version": "1",
  "settings": {
    "appearanceTools": true,
    "custom": {
      "line-height": {
        "body": 1.5,
        "heading": 1.3
      }
    },
    "border": {
      "color": true
    },
    "color": {
      "link": true,
      "custom": false,
      "palette": [
        {
          "slug": "primary",
          "color": "#b82323",
          "name": "Primary"
        },
        {
          "slug": "secondary",
          "color": "#312010",
          "name": "Secondary"
        },
        {
          "slug": "tertiary",
          "color": "#c6975a",
          "name": "Tertiary"
        },
        {
          "slug": "success-light",
          "color": "#cae8c8",
          "name": "Success Light"
        },
        {
          "slug": "success",
          "color": "#56d62b",
          "name": "Success"
        },
        {
          "slug": "success-dark",
          "color": "#31462a",
          "name": "Success Dark"
        },
        {
          "slug": "error",
          "color": "#BA274A",
          "name": "Error"
        },
        {
          "slug": "info",
          "color": "#2274A5",
          "name": "Info"
        },
        {
          "slug": "base",
          "color": "#2b2b2b",
          "name": "Base"
        },
        {
          "slug": "featured",
          "color": "#aeaeae",
          "name": "Featured"
        },
        {
          "slug": "background",
          "color": "#eeeeee",
          "name": "Background"
        },
        {
          "slug": "transparent",
          "color": "#00000000",
          "name": "Transparent"
        },
        {
          "slug": "dark",
          "color": "#000000",
          "name": "Dark"
        },
        {
          "slug": "light",
          "color": "#ffffff",
          "name": "Light"
        }
      ]
    },
    "spacing": {
      "units": [
        "%",
        "px",
        "em",
        "rem",
        "vh",
        "vw"
      ]
    },
    "typography": {
      "dropCap": false,
      "fontFamilies": [
        {
          "fontFamily": "-apple-system,BlinkMacSystemFont,\"Segoe UI\",Roboto,Oxygen-Sans,Ubuntu,Cantarell,\"Helvetica Neue\",sans-serif",
          "name": "System Font",
          "slug": "system-font"
        },
        {
          "fontFamily": "\"Work Sans\", sans-serif",
          "name": "Work Sans",
          "slug": "work-sans",
          "fontFace": [
            {
              "fontFamily": "Work Sans",
              "fontWeight": "100",
              "fontStyle": "normal",
              "fontStretch": "normal",
              "src": [
                "file:./assets/fonts/WorkSans-Thin.woff",
                "file:./assets/fonts/WorkSans-Thin.woff2"
              ]
            },
            {
              "fontFamily": "Work Sans",
              "fontWeight": "100",
              "fontStyle": "italic",
              "fontStretch": "normal",
              "src": [
                "file:./assets/fonts/WorkSans-ThinItalic.woff",
                "file:./assets/fonts/WorkSans-ThinItalic.woff2"
              ]
            },
            {
              "fontFamily": "Work Sans",
              "fontWeight": "200",
              "fontStyle": "normal",
              "fontStretch": "normal",
              "src": [
                "file:./assets/fonts/WorkSans-Air.woff",
                "file:./assets/fonts/WorkSans-Air.woff2"
              ]
            },
            {
              "fontFamily": "Work Sans",
              "fontWeight": "200",
              "fontStyle": "italic",
              "fontStretch": "normal",
              "src": [
                "file:./assets/fonts/WorkSans-AirItalic.woff",
                "file:./assets/fonts/WorkSans-AirItalic.woff2"
              ]
            },
            {
              "fontFamily": "Work Sans",
              "fontWeight": "300",
              "fontStyle": "normal",
              "fontStretch": "normal",
              "src": [
                "file:./assets/fonts/WorkSans-Light.woff",
                "file:./assets/fonts/WorkSans-Light.woff2"
              ]
            },
            {
              "fontFamily": "Work Sans",
              "fontWeight": "300",
              "fontStyle": "italic",
              "fontStretch": "normal",
              "src": [
                "file:./assets/fonts/WorkSans-LightItalic.woff",
                "file:./assets/fonts/WorkSans-LightItalic.woff2"
              ]
            },
            {
              "fontFamily": "Work Sans",
              "fontWeight": "normal",
              "fontStyle": "normal",
              "fontStretch": "normal",
              "src": [
                "file:./assets/fonts/WorkSans-Regular.woff",
                "file:./assets/fonts/WorkSans-Regular.woff2"
              ]
            },
            {
              "fontFamily": "Work Sans",
              "fontWeight": "normal",
              "fontStyle": "italic",
              "fontStretch": "normal",
              "src": [
                "file:./assets/fonts/WorkSans-RegularItalic.woff",
                "file:./assets/fonts/WorkSans-RegularItalic.woff2"
              ]
            },
            {
              "fontFamily": "Work Sans",
              "fontWeight": "500",
              "fontStyle": "normal",
              "fontStretch": "normal",
              "src": [
                "file:./assets/fonts/WorkSans-Medium.woff",
                "file:./assets/fonts/WorkSans-Medium.woff2"
              ]
            },
            {
              "fontFamily": "Work Sans",
              "fontWeight": "500",
              "fontStyle": "italic",
              "fontStretch": "normal",
              "src": [
                "file:./assets/fonts/WorkSans-MediumItalic.woff",
                "file:./assets/fonts/WorkSans-MediumItalic.woff2"
              ]
            },
            {
              "fontFamily": "Work Sans",
              "fontWeight": "600",
              "fontStyle": "normal",
              "fontStretch": "normal",
              "src": [
                "file:./assets/fonts/WorkSans-SemiBold.woff",
                "file:./assets/fonts/WorkSans-SemiBold.woff2"
              ]
            },
            {
              "fontFamily": "Work Sans",
              "fontWeight": "600",
              "fontStyle": "italic",
              "fontStretch": "normal",
              "src": [
                "file:./assets/fonts/WorkSans-SemiBoldItalic.woff",
                "file:./assets/fonts/WorkSans-SemiBoldItalic.woff2"
              ]
            },
            {
              "fontFamily": "Work Sans",
              "fontWeight": "bold",
              "fontStyle": "normal",
              "fontStretch": "normal",
              "src": [
                "file:./assets/fonts/WorkSans-Bold.woff",
                "file:./assets/fonts/WorkSans-Bold.woff2"
              ]
            },
            {
              "fontFamily": "Work Sans",
              "fontWeight": "bold",
              "fontStyle": "italic",
              "fontStretch": "normal",
              "src": [
                "file:./assets/fonts/WorkSans-BoldItalic.woff",
                "file:./assets/fonts/WorkSans-BoldItalic.woff2"
              ]
            },
            {
              "fontFamily": "Work Sans",
              "fontWeight": "800",
              "fontStyle": "normal",
              "fontStretch": "normal",
              "src": [
                "file:./assets/fonts/WorkSans-ExtraBold.woff",
                "file:./assets/fonts/WorkSans-ExtraBold.woff2"
              ]
            },
            {
              "fontFamily": "Work Sans",
              "fontWeight": "800",
              "fontStyle": "italic",
              "fontStretch": "normal",
              "src": [
                "file:./assets/fonts/WorkSans-ExtraBoldItalic.woff",
                "file:./assets/fonts/WorkSans-ExtraBoldItalic.woff2"
              ]
            },
            {
              "fontFamily": "Work Sans",
              "fontWeight": "900",
              "fontStyle": "normal",
              "fontStretch": "normal",
              "src": [
                "file:./assets/fonts/WorkSans-Black.woff",
                "file:./assets/fonts/WorkSans-Black.woff2"
              ]
            },
            {
              "fontFamily": "Work Sans",
              "fontWeight": "900",
              "fontStyle": "italic",
              "fontStretch": "normal",
              "src": [
                "file:./assets/fonts/WorkSans-BlackItalic.woff",
                "file:./assets/fonts/WorkSans-BlackItalic.woff2"
              ]
            }
          ]
        }
      ],
      "fontSizes": [
        {
          "size": "0.875rem",
          "slug": "small",
          "name": "Small"
        },
        {
          "size": "1.15rem",
          "slug": "normal",
          "name": "Normal"
        },
        {
          "size": "1.5rem",
          "slug": "medium",
          "name": "Medium"
        },
        {
          "size": "clamp(1.65rem, 1.3077rem + 1.9231vw, 2.5rem)",
          "slug": "large",
          "name": "Large"
        },
        {
          "size": "clamp(1.75rem, -1.0962rem + 7.2115vw, 3.375rem)",
          "slug": "x-large",
          "name": "X-Large"
        },
        {
          "size": "clamp(1.85rem, -2.4808rem + 11.0577vw, 4.375rem);",
          "slug": "xx-large",
          "name": "XX-Large"
        }
      ]
    },
    "layout": {
      "contentSize": "1320px",
      "wideSize": "1440px"
    }
  },
  "styles": {
    "spacing": {
      "blockGap": "30px"
    },
    "blocks": {
      "core/columns": {
        "spacing": {
          "margin": {
            "bottom": "15px"
          }
        }
      }
    }
  }
}